<?xml version="1.0" encoding="iso-8859-1"?>
<!-- Generator: Adobe Illustrator 23.0.0, SVG Export Plug-In . SVG Version: 6.00 Build 0)  -->
<svg version="1.1" id="&#x421;&#x43B;&#x43E;&#x439;_1"
	 xmlns="http://www.w3.org/2000/svg" xmlns:xlink="http://www.w3.org/1999/xlink" x="0px" y="0px" viewBox="0 0 495.747 463.372"
	 style="enable-background:new 0 0 495.747 463.372;" xml:space="preserve">
<path style="fill:#FAFAFA;" d="M0,49.813c0.559-2.041,1.174-4.069,1.669-6.126C7.989,17.392,29.77,0.13,57.192,0.06
	c43.332-0.111,86.664-0.034,129.996-0.035c67.665-0.001,135.33-0.043,202.994,0.02c27.895,0.026,49.905,17.132,56.023,43.541
	c1.042,4.498,1.513,9.229,1.518,13.853c0.089,80.498,0.065,160.995,0.065,241.493c0,1.264,0,2.529,0,4.956
	c-1.738-1.926-2.667-2.982-3.625-4.011c-8.607-9.249-17.304-18.417-25.74-27.819c-1.337-1.49-2.114-4.03-2.118-6.088
	c-0.114-52.498-0.09-104.997-0.09-157.495c0-3.995,0-7.99,0-12.431c-128.074,0-255.932,0-384.431,0c0,1.794,0,3.567,0,5.34
	c0,69.498-0.008,138.996,0.008,208.494c0.004,16.105,10.056,26.142,26.188,26.144c90.997,0.013,181.995,0.056,272.992-0.13
	c5.206-0.011,7.776,1.292,10.013,6.184c3.911,8.556,8.98,16.583,13.948,25.521c-2.4,0-4.322,0-6.244,0
	c-96.331,0.002-192.661,0.004-288.992,0.005c-31.468,0-52.524-17.239-58.776-48.084c-0.123-0.606-0.606-1.138-0.921-1.705
	C0,228.48,0,139.147,0,49.813z M239.789,47.799c-0.009,15.176,1.059,16.231,16.446,16.231c14.83,0,15.982-1.168,15.982-16.209
	c0-15.153-1.088-16.226-16.458-16.218C240.899,31.61,239.798,32.726,239.789,47.799z M319.738,64.029
	c15.543-0.008,16.47-0.948,16.478-16.701c0.007-14.47-1.281-15.739-15.956-15.731c-15.547,0.008-16.469,0.942-16.476,16.699
	C303.777,62.773,305.059,64.037,319.738,64.029z M383.765,64.025c15.4-0.011,16.436-1.033,16.446-16.221
	c0.01-15.049-1.131-16.206-15.972-16.206c-15.378,0-16.455,1.063-16.455,16.231C367.784,62.863,368.941,64.035,383.765,64.025z"/>
<path style="fill:#FAFAFA;" d="M119.499,303.599c-14.999-0.002-29.998,0.015-44.997-0.009c-7.602-0.012-10.271-2.635-10.276-10.154
	c-0.021-30.332-0.021-60.663-0.005-90.995c0.004-7.853,2.592-10.405,10.532-10.408c30.165-0.014,60.33-0.011,90.495,0.003
	c7.938,0.004,10.526,2.556,10.53,10.404c0.017,30.165,0.017,60.33,0.005,90.495c-0.003,8.189-2.506,10.653-10.786,10.662
	C149.83,303.613,134.665,303.601,119.499,303.599z"/>
<path style="fill:#FAFAFA;" d="M224.349,159.597c-49.665,0-99.33,0.002-148.995-0.003c-8.841-0.001-11.12-2.325-11.138-11.306
	c-0.007-3.5-0.029-7,0.008-10.5c0.072-6.924,2.801-9.725,9.681-9.745c15.499-0.045,30.999-0.02,46.498-0.02
	c83.831,0.001,167.661,0.003,251.492,0.006c9.858,0,11.881,2.052,11.891,12.057c0.004,3.833,0.135,7.673-0.05,11.498
	c-0.234,4.831-3.091,7.617-7.893,7.985c-1.326,0.102-2.665,0.028-3.999,0.028C322.679,159.598,273.514,159.598,224.349,159.597z"/>
<path style="fill:#FAFAFA;" d="M378.145,274.274c14.774,4.699,27.437,12.918,38.212,25.733
	c-21.768,6.764-39.837,18.549-54.347,36.603c-7.617-14.844-11.232-29.607-10.949-45.767c-1.657,0-3.089-0.118-4.496,0.019
	c-9.333,0.91-17.799-1.55-25.616-6.524c-26.013-16.552-39.352-55.598-28.952-84.628c2.917-8.142,7.511-15.179,13.783-21.108
	c4.245-4.013,8.303-3.285,9.709,2.325c3.59,14.314,13.249,21.632,26.895,24.993c10.854,2.673,20.635,7.336,28.223,15.919
	c11.999,13.572,13.406,29.098,8.681,45.812c-0.496,1.754-0.98,3.511-1.452,5.272C377.799,273.06,377.9,273.234,378.145,274.274z"/>
<path style="fill:#FAFAFA;" d="M495.747,446.962c0.026,13.811-7.845,19.415-19.745,14.848c-13.549-5.2-23.948-14.969-34.141-24.78
	c-24.565-23.644-45.794-50.165-66.033-77.52c-1.857-2.51-2.123-4.12-0.011-6.812c13.301-16.964,30.197-28.357,50.987-34.077
	c2.496-0.687,4.251-1.017,5.951,1.523c21.689,32.405,42.529,65.287,56.829,101.798c2.173,5.548,3.594,11.411,5.08,17.201
	C495.403,442.023,495.5,445.066,495.747,446.962z"/>
<path style="fill:#FAFAFA;" d="M310.396,303.602c-3.281,0-6.377,0-9.474,0c-28.492-0.001-56.984,0.045-85.475-0.097
	c-2.24-0.011-6.191-1.015-6.399-2.115c-0.711-3.757-0.336-7.796,0.198-11.648c0.104-0.751,2.772-1.63,4.261-1.636
	c25.492-0.101,50.985-0.094,76.478-0.02c1.366,0.004,3.028,0.449,4.045,1.298C299.468,293.924,304.745,298.657,310.396,303.602z"/>
<path style="fill:#FAFAFA;" d="M280.583,271.592c-22.952,0-45.267,0-67.583,0c-3.34,0-4.838-1.748-4.784-5.008
	c0.03-1.833,0.033-3.667-0.006-5.5c-0.076-3.595,1.742-5.08,5.243-5.073c18.999,0.038,37.999-0.025,56.998,0.113
	c1.292,0.009,3.148,1.06,3.757,2.168C276.439,262.346,278.252,266.628,280.583,271.592z"/>
<path style="fill:#FAFAFA;" d="M271.864,192.027c-0.746,2.51-1.3,4.234-1.772,5.981c-2.595,9.6-2.589,9.598-12.73,9.595
	c-14.304-0.005-28.608,0.024-42.912-0.019c-5.637-0.017-6.232-0.807-6.238-7.527c-0.006-7.227,0.539-8.004,6.257-8.016
	C233.42,192.004,252.372,192.027,271.864,192.027z"/>
<path style="fill:#FAFAFA;" d="M268.809,239.6c-15.255,0-30.03,0-44.805,0c-2.827,0-5.653,0.005-8.48-0.004
	c-6.823-0.022-7.294-0.505-7.307-7.455c-0.015-7.883,0.206-8.108,8.153-8.11c16.611-0.004,33.222-0.001,50.386-0.001
	C267.423,229.091,268.063,233.942,268.809,239.6z"/>
</svg>
